reddit
…
#dim(reddit2)

III. Data Manipulation

A. Number of Submissions vs Time

sub_time <- reddit %>%
  group_by(subreddit, hour=hours(time))%>%
  summarise('total_num_submission'=n()) %>%
  mutate(max=max(total_num_submission))

sub_time

## # A tibble: 117 x 4
## # Groups:   subreddit [5]
##          subreddit  hour total_num_submission   max
##              <chr> <dbl>                <int> <dbl>
##  1 dataisbeautiful     0                   43   398
##  2 dataisbeautiful     1                   92   398
##  3 dataisbeautiful     2                   48   398
##  4 dataisbeautiful     3                   77   398
##  5 dataisbeautiful     4                  122   398
##  6 dataisbeautiful     5                   70   398
##  7 dataisbeautiful     6                   57   398
##  8 dataisbeautiful     7                   92   398
##  9 dataisbeautiful     8                   95   398
## 10 dataisbeautiful     9                   17   398
## # ... with 107 more rows

sub_time2 <- reddit %>%
  group_by(hour=hours(time)) %>%
  summarise('total_num_submissions'=n())

sub_time2

## # A tibble: 24 x 2
##     hour total_num_submissions
##    <dbl>                 <int>
##  1     0                  1079
##  2     1                   874
##  3     2                   724
##  4     3                  1043
##  5     4                   458
##  6     5                   358
##  7     6                   685
##  8     7                   512
##  9     8                   851
## 10     9                  1391
## # ... with 14 more rows
…
Weve taken the data from all submissions sent through reddit to find the most popular times for posting. Looking at all submissions sent throughout each day, here is an overview of the most popular times to post on reddit: 
 Around noon, local time, on average for each time zone, is the most popular time to post, in order to get the most number of votes. The three highest volume of voting interactions occurs around 12:00 pm., 8:00 p.m., and 8:00 a.m. The three fewest votes time slots are 2:00 a.m., 6:00 a.m., and interestingly, 3:00 p.m.

vote_time <- reddit %>%
  group_by(hour=as.factor(hours(time))) %>%
  select(hour,topic_vote,subreddit) %>%
  mutate(median = median(topic_vote))

vote_time

## # A tibble: 34,142 x 4
## # Groups:   hour [24]
##      hour topic_vote       subreddit median
##    <fctr>      <int>           <chr>  <dbl>
##  1     16         70 dataisbeautiful     35
##  2     17         60 dataisbeautiful     35
##  3     17         67      statistics     35
##  4     19        344          Frugal     27
##  5     16         70 dataisbeautiful     35
##  6     17         60 dataisbeautiful     35
##  7     17        127 MachineLearning     35
##  8     17         83 MachineLearning     35
##  9      9         16      statistics     18
## 10     19        344          Frugal     27
## # ... with 34,132 more rows
…
